:020000040800F2
:1000000000000220FD040008450500084505000821
:1000100045050008450500084505000800000000EA
:10002000000000000000000000000000450500087E
:1000300045050008000000004505000845050008CA
:100040004505000845050008450500084505000868
:100050004505000845050008450500084505000858
:100060004505000845050008450500084505000848
:100070004505000845050008450500084505000838
:100080004505000845050008450500084505000828
:100090004505000845050008450500084505000818
:1000A0004505000845050008450500084505000808
:1000B00045050008450500084505000845050008F8
:1000C00045050008450500084505000845050008E8
:1000D00045050008450500084505000845050008D8
:1000E00045050008450500084505000845050008C8
:1000F00045050008450500084505000845050008B8
:1001000045050008450500084505000845050008A7
:100110004505000845050008450500084505000897
:100120004505000845050008450500084505000887
:100130004505000845050008450500084505000877
:100140004505000845050008450500084505000867
:100150004505000845050008450500084505000857
:100160004505000845050008450500084505000847
:100170004505000845050008450500084505000837
:080180004505000845050008D3
:1001880010B5054C237833B9044B13B10448AFF3C9
:1001980000800123237010BD4804002000000000E7
:1001A80024080008084B10B51BB108480849AFF3EC
:1001B80000800848036803B910BD074B002BFBD02B
:1001C800BDE81040184700BF0000000024080008E0
:1001D8004C0400204404002000000000154B002BB4
:1001E80008BF134B9D46A3F5803A00218B460F4666
:1001F8001348144A121A00F0DBF90F4B002B00D0F9
:1002080098470E4B002B00D098470020002104008F
:100218000D000D48002802D00C4800F08BFA00F0C1
:100228009FF92000290000F039F900F089F900BF92
:1002380000000800000000000000000000000000AE
:1002480048040020640400203D070008490700080E
:100258001D481E4B1E491F4A10B4046B44F001048C
:100268000463046B44F002040463186840F41A4001
:100278001860086840F480600860586858604868EA
:100288004860986840F42A409860886883B00024E1
:1002980040F4006088601C830194019B934205D858
:1002A800019B01330193019B9342F9D9074B084AFB
:1002B800094840244FF4A0011C831862116203B05E
:1002C8005DF8044B704700BF003802400000024050
:1002D800000402409F86010000005550024B40F682
:1002E80046021A80704700BF00300140044B18B91D
:1002F8004FF400521A83704720221A83704700BFB8
:1003080000040240024B9881988980B2704700BF70
:1003180000300140394B3A481A68002142F0010286
:100328001A6099601A6822F0847222F480321A6086
:1003380058601A6882B022F480221A60D96000914D
:1003480001911A6842F480321A601A4603E0009B51
:10035800B3F5A06F09D0136803F400330193009B31
:1003680001330093019B002BF1D0244B1B6813F43D
:10037800003318BF01230193019B012B0BD0214BA4
:10038800D3F888204FF0006142F47002C3F8882047
:10039800996002B07047194B1B491A6C1B4842F010
:1003A80080521A640A6842F480420A609A689A6025
:1003B8009A6842F400429A609A6842F4A0529A609D
:1003C80058601A6842F080721A601A4611680B4B1E
:1003D8008901FBD50E4A40F2056111609A6822F046
:1003E80003029A609A6842F002029A601A46936879
:1003F80003F00C03082BFAD1C1E700BF0038024014
:100408001030002400ED00E0007000400854400760
:10041800003C02401848836803F00C03042B28D0E2
:10042800082B09D0154B144A15499268C2F30312D8
:100438008A5CD3400B6170474368416813F4800FAE
:10044800436818BF0F4801F03F020CBF0B49B0FBCF
:10045800F2F1C3F3881308BFB1FBF2F101FB03F219
:10046800054B5B68C3F3014301335B00B2FBF3F355
:10047800D9E7044BD7E700BF003802400024F40056
:100488000400002000127A00540800080000002030
:10049800440400204804002064040020F8B5FFF755
:1004A800D7FE124B124A40F646002A214FF4005458
:1004B8001880148320209981998910834CF2503137
:1004C8004FF02B072C2640F6FF7514839F81B3F855
:1004D8000CE0108314839E81B3F80CE0108301397B
:1004E8009D81B3F80CE0F0D1F8BD00BF00300140A9
:1004F80000040240002103E00B4B5B5843500431D9
:100508000A480B4B42189A42F6D30A4A02E00023E3
:1005180042F8043B084B9A42F9D3FFF7FBFE00F080
:100528001FF8FFF7BBFF70475408000800000020C1
:10053800440400204804002064040020FEE7000072
:1005480008B50021044600F08BF8044B1868C36B0B
:1005580003B19847204600F06FF900BF2008000853
:1005680070B50F4E0F4D761BB61018BF002405D07E
:10057800013455F8043B9847A642F9D10A4E0B4D71
:10058800761B00F04DF9B61018BF002406D00134D0
:1005980055F8043B9847A642F9D170BD70BD00BF1D
:1005A80048080008480800085008000848080008DB
:1005B80070B4840746D0541E002A41D0CDB20346F9
:1005C80002E0621EE4B3144603F8015B9A07F8D10F
:1005D800032C2ED9CDB245EA05250F2C45EA054551
:1005E80019D903F110022646103E0F2E42F8105C6E
:1005F80042F80C5C42F8085C42F8045C02F1100214
:10060800F2D8A4F1100222F00F0204F00F04103205
:10061800032C13440DD91E462246043A032A46F8F1
:10062800045BFAD8221F22F003020432134404F0B8
:1006380003042CB1C9B21C4403F8011BA342FBD12B
:1006480070BC704714460346C2E700BF024B13B1A3
:10065800024800F06FB87047000000004907000822
:100668002DE9F04F314B83B01B68009303F5A47359
:1006780081460E460193009BD3F8487127B3DDF8F5
:1006880004A07C68651E0ED4013407EB84044FF087
:100698000008E6B1D4F80031B34218D0013D6B1C14
:1006A800A4F10404F5D1224B73B17B68002B36D139
:1006B8003B68002B34D03846CAF80030AFF30080CE
:1006C800DAF80070002FDCD103B0BDE8F08F7B684A
:1006D8002268013BAB420CBF7D60C4F80080002A51
:1006E800DCD0D7F88831D7F804B00121A9401942E5
:1006F80008D190477B685B45BDD1DAF80030BB4232
:10070800CCD0B8E7D7F88C31194204D14846D4F890
:1007180080109047EEE7D4F880009047EAE73B68FE
:10072800BA461F46002FACD1CEE700BF200800080C
:1007380000000000014600200246034600F016B8FB
:1007480038B5084B084DED1AAC1018BFED1805D098
:10075800013C55F8043D9847002CF9D1BDE83840D4
:1007680000F064B850080008540800082DE9F04764
:10077800254C2568D5F8484106468846924699464C
:10078800CCB360681F2818DC431C7EB104EB8005DD
:100798000121C5F888A0D4F8887101FA00F217433E
:1007A800022EC4F88871C5F808911ED00230636023
:1007B80044F820800020BDE8F087144B03B34FF4C1
:1007C800C870AFF300800446D0B1D5F8483100278F
:1007D80080E88800C5F8484138460123C4F8887184
:1007E800C4F88C71002EE1D0D0E7D4F88C110A43FC
:1007F800C4F88C21DAE705F5A674C5F84841C0E7C6
:100808004FF0FF30BDE8F087200800080000000026
:10081800FEE700BF430000001800002000000000B1
:10082800F8B500BFF8BC08BC9E467047F8B500BFD5
:08083800F8BC08BC9E467047A5
:08084000A4F9FF7F0100000094
:0808480055060008AD0100088F
:040850008901000812
:10085400000000000000000000000000010203048A
:1008640006070809007A030A0000000004030020B8
:100874006C030020D40300200000000000000000EE
:100884000000000000000000000000000000000064
:100894000000000000000000000000001C08000828
:1008A4000000000000000000000000000000000044
:1008B4000000000000000000000000000000000034
:1008C4000000000000000000000000000000000024
:1008D4000000000000000000000000000000000014
:1008E4000000000000000000000000000000000004
:1008F40000000000000000000000000000000000F4
:1009040000000000000000000000000000000000E3
:1009140001000000000000000E33CDAB34126DE680
:10092400ECDE05000B0000000000000000000000E9
:1009340000000000000000000000000000000000B3
:1009440000000000000000000000000000000000A3
:100954000000000000000000000000000000000093
:100964000000000000000000000000000000000083
:100974000000000000000000000000000000000073
:100984000000000000000000000000000000000063
:100994000000000000000000000000000000000053
:1009A4000000000000000000000000000000000043
:1009B4000000000000000000000000000000000033
:1009C4000000000000000000000000000000000023
:1009D4000000000000000000000000000000000013
:1009E4000000000000000000000000000000000003
:1009F40000000000000000000000000000000000F3
:100A040000000000000000000000000000000000E2
:100A140000000000000000000000000000000000D2
:100A240000000000000000000000000000000000C2
:100A340000000000000000000000000000000000B2
:100A440000000000000000000000000000000000A2
:100A54000000000000000000000000000000000092
:100A64000000000000000000000000000000000082
:100A74000000000000000000000000000000000072
:100A84000000000000000000000000000000000062
:100A94000000000000000000000000000000000052
:100AA4000000000000000000000000000000000042
:100AB4000000000000000000000000000000000032
:100AC4000000000000000000000000000000000022
:100AD4000000000000000000000000000000000012
:100AE4000000000000000000000000000000000002
:100AF40000000000000000000000000000000000F2
:100B040000000000000000000000000000000000E1
:100B140000000000000000000000000000000000D1
:100B240000000000000000000000000000000000C1
:100B340000000000000000000000000000000000B1
:100B440000000000000000000000000000000000A1
:100B54000000000000000000000000000000000091
:100B64000000000000000000000000000000000081
:100B74000000000000000000000000000000000071
:100B84000000000000000000000000000000000061
:100B94000000000000000000000000000000000051
:100BA4000000000000000000000000000000000041
:100BB4000000000000000000000000000000000031
:100BC4000000000000000000000000000000000021
:100BD4000000000000000000000000000000000011
:100BE4000000000000000000000000000000000001
:100BF40000000000000000000000000000000000F1
:100C040000000000000000000000000000000000E0
:100C140000000000000000000000000000000000D0
:100C240000000000000000000000000000000000C0
:100C340000000000000000000000000000000000B0
:100C440000000000000000000000000000000000A0
:100C54000000000000000000000000000000000090
:100C64000000000000000000000000000000000080
:100C74000000000000000000000000000000000070
:100C84000000000000000000000000000000000060
:040C94001800002024
:040C98000000000058
:04000005080004FDEE
:00000001FF
